^D:\SOFT\UNREALEDUCATION\PRACTICE_13_4\PRACTICE 13.4\MATH.CPP|D:\SOFT\UNREALEDUCATION\PRACTICE_13_4\PRACTICE 13.4\PRACTICE 13.4.CPP
D:\SOFT\UNREALEDUCATION\PRACTICE_13_4\PRACTICE 13.4\X64\DEBUG\VC143.PDB
D:\SOFT\UNREALEDUCATION\PRACTICE_13_4\PRACTICE 13.4\X64\DEBUG\VC143.IDB
D:\SOFT\UNREALEDUCATION\PRACTICE_13_4\PRACTICE 13.4\X64\DEBUG\PRACTICE 13.4.OBJ
D:\SOFT\UNREALEDUCATION\PRACTICE_13_4\PRACTICE 13.4\X64\DEBUG\MATH.OBJ
^D:\SOFT\UNREALEDUCATION\PRACTICE_13_4\PRACTICE 13.4\MATH.CPP
D:\SOFT\UNREALEDUCATION\PRACTICE_13_4\PRACTICE 13.4\X64\DEBUG\VC143.PDB
D:\SOFT\UNREALEDUCATION\PRACTICE_13_4\PRACTICE 13.4\X64\DEBUG\VC143.IDB
D:\SOFT\UNREALEDUCATION\PRACTICE_13_4\PRACTICE 13.4\X64\DEBUG\MATH.OBJ
^D:\SOFT\UNREALEDUCATION\PRACTICE_13_4\PRACTICE 13.4\PRACTICE 13.4.CPP
D:\SOFT\UNREALEDUCATION\PRACTICE_13_4\PRACTICE 13.4\X64\DEBUG\VC143.PDB
D:\SOFT\UNREALEDUCATION\PRACTICE_13_4\PRACTICE 13.4\X64\DEBUG\VC143.IDB
D:\SOFT\UNREALEDUCATION\PRACTICE_13_4\PRACTICE 13.4\X64\DEBUG\PRACTICE 13.4.OBJ
